…
We can use a similar process to figure out how many colors there are in total in this photo. We’ll apply the rgb function to the 3 color channels to flatten down the array into a 2 dimensional matrix of hex values (I love purrr more than anyone, but it’s not designed to work on arrays and matrices, so we’ll go old skool). Then we’ll tabulate the hex values, convert it to a tibble, and sort it by count.

eye_hex_values <- apply(eye_rgb, MARGIN = c(1,2), function(x) rgb(x[1], x[2], x[3])) 

tabled_hex_values <- table(c(eye_hex_values))

library(tidyverse, warn.conflicts = F)
hex_df <- tabled_hex_values %>% 
  as_tibble() %>% 
  arrange(desc(n)) %>% 
  rename(hex_value = Var1, cnt = n) %>% 
  mutate(percent_of_total = scales::percent(cnt/sum(cnt)))
hex_df

## # A tibble: 42,861 x 3
##    hex_value   cnt percent_of_total
##    <chr>     <int> <chr>           
##  1 #C9AEA3    1572 0.626%          
##  2 #CAAFA4     929 0.370%          
##  3 #C3A79B     877 0.350%          
##  4 #C7AFA3     755 0.301%          
##  5 #C7AFA5     625 0.249%          
##  6 #C5ADA3     620 0.247%          
##  7 #C4ACA2     571 0.228%          
##  8 #C2A69A     561 0.224%          
##  9 #C1A599     503 0.200%          
## 10 #C5ADA1     472 0.188%          
## # ... with 42,851 more rows
…
One of the sweetest flags in the world

But when we use the 1% cutoff, we see two different shades of blue. They’re almost imperceptable to the human eye, and one (#3E5EB9) represents 3% whereas the other (#3D5DA7) only represents 1.8%.

color_count("../../static/img/flags/sz.png") 

## # A tibble: 1,187 x 3
##    hex_value     cnt percent_of_total
##    <chr>       <int>            <dbl>
##  1 #3E5EB9   1556480         0.356   
##  2 #B10C0C   1436165         0.329   
##  3 #FFD900    661149         0.151   
##  4 #000000    309063         0.0707  
##  5 #FFFFFF    281048         0.0643  
##  6 #3D5DA7     77973         0.0178  
##  7 #A70000      9172         0.00210 
##  8 #627596      5120         0.00117 
##  9 #EBA603      5120         0.00117 
## 10 #A00B0B      1448         0.000331
## # ... with 1,177 more rows
…
So where do we draw the line exactly? That’s hard to answer perfectly, but based on the shape of the distribution I feel that anything in that second mode probably doesn’t deserve to be counted as a real color. Thus, I’m making the call to draw the line at 0.4%, which you can see in the red vertical line of the histogram. In the end, my initial guess of 1% as the cutoff wasn’t too far off! If anything, this essay is a tribute to human intuition.

Back to the main question

At this point, we can start answering the big question. What flag has the most colors of them all?

winners_df <- flag_df %>% 
  # remove any colors that fall below our threshold
  filter(Pct > 4e-03) %>% 
  count(country, sort = T)

winners_df

## # A tibble: 196 x 2
## # Groups:   country [196]
##    country          n
##    <chr>        <int>
##  1 Belize           9
##  2 Ecuador          8
##  3 Mexico           7
##  4 Dominica         6
##  5 Fiji             6
##  6 Moldova          6
##  7 Portugal         6
##  8 South Africa     6
##  9 Afghanistan      5
## 10 Andorra          5
## # ... with 186 more rows
…
